%YAML 1.1
%TAG !u! tag:unity3d.com,2011:
--- !u!1001 &8371717658912745249
PrefabInstance:
  m_ObjectHideFlags: 0
  serializedVersion: 2
  m_Modification:
    m_TransformParent: {fileID: 0}
    m_Modifications:
    - target: {fileID: 4495074691294440328, guid: af36cae8e597afc40a56f31800e2c5f6, type: 3}
      propertyPath: m_Name
      value: Coin
      objectReference: {fileID: 0}
    - target: {fileID: 4495074691294440330, guid: af36cae8e597afc40a56f31800e2c5f6, type: 3}
      propertyPath: m_SpriteTilingProperty.oldSize.x
      value: 0.46666667
      objectReference: {fileID: 0}
    - target: {fileID: 4495074691294440330, guid: af36cae8e597afc40a56f31800e2c5f6, type: 3}
      propertyPath: m_SpriteTilingProperty.oldSize.y
      value: 0.53333336
      objectReference: {fileID: 0}
    - target: {fileID: 4495074691294440330, guid: af36cae8e597afc40a56f31800e2c5f6, type: 3}
      propertyPath: m_SpriteTilingProperty.newSize.x
      value: 0.46666667
      objectReference: {fileID: 0}
    - target: {fileID: 4495074691294440330, guid: af36cae8e597afc40a56f31800e2c5f6, type: 3}
      propertyPath: m_SpriteTilingProperty.newSize.y
      value: 0.53333336
      objectReference: {fileID: 0}
    - target: {fileID: 4495074691294440330, guid: af36cae8e597afc40a56f31800e2c5f6, type: 3}
      propertyPath: m_Size.x
      value: 0.5
      objectReference: {fileID: 0}
    - target: {fileID: 4495074691294440330, guid: af36cae8e597afc40a56f31800e2c5f6, type: 3}
      propertyPath: m_Size.y
      value: 0.5
      objectReference: {fileID: 0}
    - target: {fileID: 4495074691294440331, guid: af36cae8e597afc40a56f31800e2c5f6, type: 3}
      propertyPath: m_Sprite
      value: 
      objectReference: {fileID: -3338749442709606003, guid: 535ac18777050de4298150df86114ffb, type: 3}
    - target: {fileID: 4495074691294440331, guid: af36cae8e597afc40a56f31800e2c5f6, type: 3}
      propertyPath: m_Size.x
      value: 0.46666667
      objectReference: {fileID: 0}
    - target: {fileID: 4495074691294440331, guid: af36cae8e597afc40a56f31800e2c5f6, type: 3}
      propertyPath: m_Size.y
      value: 0.53333336
      objectReference: {fileID: 0}
    - target: {fileID: 4495074691294440331, guid: af36cae8e597afc40a56f31800e2c5f6, type: 3}
      propertyPath: m_WasSpriteAssigned
      value: 1
      objectReference: {fileID: 0}
    - target: {fileID: 4495074691294440332, guid: af36cae8e597afc40a56f31800e2c5f6, type: 3}
      propertyPath: m_LocalPosition.x
      value: 0
      objectReference: {fileID: 0}
    - target: {fileID: 4495074691294440332, guid: af36cae8e597afc40a56f31800e2c5f6, type: 3}
      propertyPath: m_LocalPosition.y
      value: 0
      objectReference: {fileID: 0}
    - target: {fileID: 4495074691294440332, guid: af36cae8e597afc40a56f31800e2c5f6, type: 3}
      propertyPath: m_LocalPosition.z
      value: 0
      objectReference: {fileID: 0}
    - target: {fileID: 4495074691294440332, guid: af36cae8e597afc40a56f31800e2c5f6, type: 3}
      propertyPath: m_LocalRotation.x
      value: 0
      objectReference: {fileID: 0}
    - target: {fileID: 4495074691294440332, guid: af36cae8e597afc40a56f31800e2c5f6, type: 3}
      propertyPath: m_LocalRotation.y
      value: 0
      objectReference: {fileID: 0}
    - target: {fileID: 4495074691294440332, guid: af36cae8e597afc40a56f31800e2c5f6, type: 3}
      propertyPath: m_LocalRotation.z
      value: 0
      objectReference: {fileID: 0}
    - target: {fileID: 4495074691294440332, guid: af36cae8e597afc40a56f31800e2c5f6, type: 3}
      propertyPath: m_LocalRotation.w
      value: 1
      objectReference: {fileID: 0}
    - target: {fileID: 4495074691294440332, guid: af36cae8e597afc40a56f31800e2c5f6, type: 3}
      propertyPath: m_RootOrder
      value: 0
      objectReference: {fileID: 0}
    - target: {fileID: 4495074691294440332, guid: af36cae8e597afc40a56f31800e2c5f6, type: 3}
      propertyPath: m_LocalEulerAnglesHint.x
      value: 0
      objectReference: {fileID: 0}
    - target: {fileID: 4495074691294440332, guid: af36cae8e597afc40a56f31800e2c5f6, type: 3}
      propertyPath: m_LocalEulerAnglesHint.y
      value: 0
      objectReference: {fileID: 0}
    - target: {fileID: 4495074691294440332, guid: af36cae8e597afc40a56f31800e2c5f6, type: 3}
      propertyPath: m_LocalEulerAnglesHint.z
      value: 0
      objectReference: {fileID: 0}
    - target: {fileID: 5031627876926104608, guid: af36cae8e597afc40a56f31800e2c5f6, type: 3}
      propertyPath: itemData.name
      value: Coin
      objectReference: {fileID: 0}
    - target: {fileID: 5031627876926104608, guid: af36cae8e597afc40a56f31800e2c5f6, type: 3}
      propertyPath: itemData.description
      value: This is coin
      objectReference: {fileID: 0}
    - target: {fileID: 5031627876926104608, guid: af36cae8e597afc40a56f31800e2c5f6, type: 3}
      propertyPath: itemData.price
      value: 1
      objectReference: {fileID: 0}
    - target: {fileID: 9155674087778958017, guid: af36cae8e597afc40a56f31800e2c5f6, type: 3}
      propertyPath: m_Controller
      value: 
      objectReference: {fileID: 9100000, guid: 2c178ac3125243d4b9052695e37fdc9e, type: 2}
    m_RemovedComponents: []
  m_SourcePrefab: {fileID: 100100000, guid: af36cae8e597afc40a56f31800e2c5f6, type: 3}
