%YAML 1.1
%TAG !u! tag:unity3d.com,2011:
--- !u!1001 &144966328574276282
PrefabInstance:
  m_ObjectHideFlags: 0
  serializedVersion: 2
  m_Modification:
    m_TransformParent: {fileID: 0}
    m_Modifications:
    - target: {fileID: 4495074691294440328, guid: af36cae8e597afc40a56f31800e2c5f6, type: 3}
      propertyPath: m_Name
      value: Key
      objectReference: {fileID: 0}
    - target: {fileID: 4495074691294440330, guid: af36cae8e597afc40a56f31800e2c5f6, type: 3}
      propertyPath: m_SpriteTilingProperty.oldSize.x
      value: 0.6
      objectReference: {fileID: 0}
    - target: {fileID: 4495074691294440330, guid: af36cae8e597afc40a56f31800e2c5f6, type: 3}
      propertyPath: m_SpriteTilingProperty.oldSize.y
      value: 0.33333334
      objectReference: {fileID: 0}
    - target: {fileID: 4495074691294440330, guid: af36cae8e597afc40a56f31800e2c5f6, type: 3}
      propertyPath: m_SpriteTilingProperty.newSize.x
      value: 0.6
      objectReference: {fileID: 0}
    - target: {fileID: 4495074691294440330, guid: af36cae8e597afc40a56f31800e2c5f6, type: 3}
      propertyPath: m_SpriteTilingProperty.newSize.y
      value: 0.33333334
      objectReference: {fileID: 0}
    - target: {fileID: 4495074691294440330, guid: af36cae8e597afc40a56f31800e2c5f6, type: 3}
      propertyPath: m_Size.x
      value: 0.6
      objectReference: {fileID: 0}
    - target: {fileID: 4495074691294440330, guid: af36cae8e597afc40a56f31800e2c5f6, type: 3}
      propertyPath: m_Size.y
      value: 0.4
      objectReference: {fileID: 0}
    - target: {fileID: 4495074691294440331, guid: af36cae8e597afc40a56f31800e2c5f6, type: 3}
      propertyPath: m_Sprite
      value: 
      objectReference: {fileID: 1694913177206695654, guid: 596ab1b8197348a449491c0975cd903a, type: 3}
    - target: {fileID: 4495074691294440331, guid: af36cae8e597afc40a56f31800e2c5f6, type: 3}
      propertyPath: m_Size.x
      value: 0.6
      objectReference: {fileID: 0}
    - target: {fileID: 4495074691294440331, guid: af36cae8e597afc40a56f31800e2c5f6, type: 3}
      propertyPath: m_Size.y
      value: 0.33333334
      objectReference: {fileID: 0}
    - target: {fileID: 4495074691294440331, guid: af36cae8e597afc40a56f31800e2c5f6, type: 3}
      propertyPath: m_WasSpriteAssigned
      value: 1
      objectReference: {fileID: 0}
    - target: {fileID: 4495074691294440332, guid: af36cae8e597afc40a56f31800e2c5f6, type: 3}
      propertyPath: m_LocalPosition.x
      value: 0
      objectReference: {fileID: 0}
    - target: {fileID: 4495074691294440332, guid: af36cae8e597afc40a56f31800e2c5f6, type: 3}
      propertyPath: m_LocalPosition.y
      value: 0
      objectReference: {fileID: 0}
    - target: {fileID: 4495074691294440332, guid: af36cae8e597afc40a56f31800e2c5f6, type: 3}
      propertyPath: m_LocalPosition.z
      value: 0
      objectReference: {fileID: 0}
    - target: {fileID: 4495074691294440332, guid: af36cae8e597afc40a56f31800e2c5f6, type: 3}
      propertyPath: m_LocalRotation.x
      value: 0
      objectReference: {fileID: 0}
    - target: {fileID: 4495074691294440332, guid: af36cae8e597afc40a56f31800e2c5f6, type: 3}
      propertyPath: m_LocalRotation.y
      value: 0
      objectReference: {fileID: 0}
    - target: {fileID: 4495074691294440332, guid: af36cae8e597afc40a56f31800e2c5f6, type: 3}
      propertyPath: m_LocalRotation.z
      value: 0
      objectReference: {fileID: 0}
    - target: {fileID: 4495074691294440332, guid: af36cae8e597afc40a56f31800e2c5f6, type: 3}
      propertyPath: m_LocalRotation.w
      value: 1
      objectReference: {fileID: 0}
    - target: {fileID: 4495074691294440332, guid: af36cae8e597afc40a56f31800e2c5f6, type: 3}
      propertyPath: m_RootOrder
      value: 0
      objectReference: {fileID: 0}
    - target: {fileID: 4495074691294440332, guid: af36cae8e597afc40a56f31800e2c5f6, type: 3}
      propertyPath: m_LocalEulerAnglesHint.x
      value: 0
      objectReference: {fileID: 0}
    - target: {fileID: 4495074691294440332, guid: af36cae8e597afc40a56f31800e2c5f6, type: 3}
      propertyPath: m_LocalEulerAnglesHint.y
      value: 0
      objectReference: {fileID: 0}
    - target: {fileID: 4495074691294440332, guid: af36cae8e597afc40a56f31800e2c5f6, type: 3}
      propertyPath: m_LocalEulerAnglesHint.z
      value: 0
      objectReference: {fileID: 0}
    - target: {fileID: 5031627876926104608, guid: af36cae8e597afc40a56f31800e2c5f6, type: 3}
      propertyPath: itemData.name
      value: Key
      objectReference: {fileID: 0}
    - target: {fileID: 5031627876926104608, guid: af36cae8e597afc40a56f31800e2c5f6, type: 3}
      propertyPath: itemData.description
      value: This is key
      objectReference: {fileID: 0}
    - target: {fileID: 5031627876926104608, guid: af36cae8e597afc40a56f31800e2c5f6, type: 3}
      propertyPath: itemData.price
      value: 10
      objectReference: {fileID: 0}
    - target: {fileID: 9155674087778958017, guid: af36cae8e597afc40a56f31800e2c5f6, type: 3}
      propertyPath: m_Controller
      value: 
      objectReference: {fileID: 9100000, guid: 6fd3a1bf34e3bcd4a8239ce7621681da, type: 2}
    m_RemovedComponents: []
  m_SourcePrefab: {fileID: 100100000, guid: af36cae8e597afc40a56f31800e2c5f6, type: 3}
