%YAML 1.1
%TAG !u! tag:unity3d.com,2011:
--- !u!1 &4867218347543381657
GameObject:
  m_ObjectHideFlags: 0
  m_CorrespondingSourceObject: {fileID: 0}
  m_PrefabInstance: {fileID: 0}
  m_PrefabAsset: {fileID: 0}
  serializedVersion: 6
  m_Component:
  - component: {fileID: 6969641078151164894}
  - component: {fileID: 6815968524871014535}
  - component: {fileID: 7828267376415636666}
  m_Layer: 0
  m_Name: Layer1
  m_TagString: Untagged
  m_Icon: {fileID: 0}
  m_NavMeshLayer: 0
  m_StaticEditorFlags: 0
  m_IsActive: 1
--- !u!4 &6969641078151164894
Transform:
  m_ObjectHideFlags: 0
  m_CorrespondingSourceObject: {fileID: 0}
  m_PrefabInstance: {fileID: 0}
  m_PrefabAsset: {fileID: 0}
  m_GameObject: {fileID: 4867218347543381657}
  m_LocalRotation: {x: -0, y: -0, z: -0, w: 1}
  m_LocalPosition: {x: 0, y: 0, z: 0}
  m_LocalScale: {x: 1, y: 1, z: 1}
  m_Children: []
  m_Father: {fileID: 2825990550205054040}
  m_RootOrder: 0
  m_LocalEulerAnglesHint: {x: 0, y: 0, z: 0}
--- !u!1839735485 &6815968524871014535
Tilemap:
  m_ObjectHideFlags: 0
  m_CorrespondingSourceObject: {fileID: 0}
  m_PrefabInstance: {fileID: 0}
  m_PrefabAsset: {fileID: 0}
  m_GameObject: {fileID: 4867218347543381657}
  m_Enabled: 1
  m_Tiles:
  - first: {x: -1, y: -5, z: 0}
    second:
      serializedVersion: 2
      m_TileIndex: 50
      m_TileSpriteIndex: 50
      m_TileMatrixIndex: 0
      m_TileColorIndex: 0
      m_TileObjectToInstantiateIndex: 65535
      m_AllTileFlags: 1073741825
  - first: {x: 0, y: -5, z: 0}
    second:
      serializedVersion: 2
      m_TileIndex: 51
      m_TileSpriteIndex: 51
      m_TileMatrixIndex: 0
      m_TileColorIndex: 0
      m_TileObjectToInstantiateIndex: 65535
      m_AllTileFlags: 1073741825
  - first: {x: 1, y: -5, z: 0}
    second:
      serializedVersion: 2
      m_TileIndex: 52
      m_TileSpriteIndex: 52
      m_TileMatrixIndex: 0
      m_TileColorIndex: 0
      m_TileObjectToInstantiateIndex: 65535
      m_AllTileFlags: 1073741825
  - first: {x: 2, y: -5, z: 0}
    second:
      serializedVersion: 2
      m_TileIndex: 53
      m_TileSpriteIndex: 53
      m_TileMatrixIndex: 0
      m_TileColorIndex: 0
      m_TileObjectToInstantiateIndex: 65535
      m_AllTileFlags: 1073741825
  - first: {x: 3, y: -5, z: 0}
    second:
      serializedVersion: 2
      m_TileIndex: 54
      m_TileSpriteIndex: 54
      m_TileMatrixIndex: 0
      m_TileColorIndex: 0
      m_TileObjectToInstantiateIndex: 65535
      m_AllTileFlags: 1073741825
  - first: {x: 4, y: -5, z: 0}
    second:
      serializedVersion: 2
      m_TileIndex: 55
      m_TileSpriteIndex: 55
      m_TileMatrixIndex: 0
      m_TileColorIndex: 0
      m_TileObjectToInstantiateIndex: 65535
      m_AllTileFlags: 1073741825
  - first: {x: 5, y: -5, z: 0}
    second:
      serializedVersion: 2
      m_TileIndex: 56
      m_TileSpriteIndex: 56
      m_TileMatrixIndex: 0
      m_TileColorIndex: 0
      m_TileObjectToInstantiateIndex: 65535
      m_AllTileFlags: 1073741825
  - first: {x: 6, y: -5, z: 0}
    second:
      serializedVersion: 2
      m_TileIndex: 57
      m_TileSpriteIndex: 57
      m_TileMatrixIndex: 0
      m_TileColorIndex: 0
      m_TileObjectToInstantiateIndex: 65535
      m_AllTileFlags: 1073741825
  - first: {x: 7, y: -5, z: 0}
    second:
      serializedVersion: 2
      m_TileIndex: 58
      m_TileSpriteIndex: 58
      m_TileMatrixIndex: 0
      m_TileColorIndex: 0
      m_TileObjectToInstantiateIndex: 65535
      m_AllTileFlags: 1073741825
  - first: {x: 8, y: -5, z: 0}
    second:
      serializedVersion: 2
      m_TileIndex: 59
      m_TileSpriteIndex: 59
      m_TileMatrixIndex: 0
      m_TileColorIndex: 0
      m_TileObjectToInstantiateIndex: 65535
      m_AllTileFlags: 1073741825
  - first: {x: -1, y: -4, z: 0}
    second:
      serializedVersion: 2
      m_TileIndex: 40
      m_TileSpriteIndex: 40
      m_TileMatrixIndex: 0
      m_TileColorIndex: 0
      m_TileObjectToInstantiateIndex: 65535
      m_AllTileFlags: 1073741825
  - first: {x: 0, y: -4, z: 0}
    second:
      serializedVersion: 2
      m_TileIndex: 41
      m_TileSpriteIndex: 41
      m_TileMatrixIndex: 0
      m_TileColorIndex: 0
      m_TileObjectToInstantiateIndex: 65535
      m_AllTileFlags: 1073741825
  - first: {x: 1, y: -4, z: 0}
    second:
      serializedVersion: 2
      m_TileIndex: 42
      m_TileSpriteIndex: 42
      m_TileMatrixIndex: 0
      m_TileColorIndex: 0
      m_TileObjectToInstantiateIndex: 65535
      m_AllTileFlags: 1073741825
  - first: {x: 2, y: -4, z: 0}
    second:
      serializedVersion: 2
      m_TileIndex: 43
      m_TileSpriteIndex: 43
      m_TileMatrixIndex: 0
      m_TileColorIndex: 0
      m_TileObjectToInstantiateIndex: 65535
      m_AllTileFlags: 1073741825
  - first: {x: 3, y: -4, z: 0}
    second:
      serializedVersion: 2
      m_TileIndex: 44
      m_TileSpriteIndex: 44
      m_TileMatrixIndex: 0
      m_TileColorIndex: 0
      m_TileObjectToInstantiateIndex: 65535
      m_AllTileFlags: 1073741825
  - first: {x: 4, y: -4, z: 0}
    second:
      serializedVersion: 2
      m_TileIndex: 45
      m_TileSpriteIndex: 45
      m_TileMatrixIndex: 0
      m_TileColorIndex: 0
      m_TileObjectToInstantiateIndex: 65535
      m_AllTileFlags: 1073741825
  - first: {x: 5, y: -4, z: 0}
    second:
      serializedVersion: 2
      m_TileIndex: 46
      m_TileSpriteIndex: 46
      m_TileMatrixIndex: 0
      m_TileColorIndex: 0
      m_TileObjectToInstantiateIndex: 65535
      m_AllTileFlags: 1073741825
  - first: {x: 6, y: -4, z: 0}
    second:
      serializedVersion: 2
      m_TileIndex: 47
      m_TileSpriteIndex: 47
      m_TileMatrixIndex: 0
      m_TileColorIndex: 0
      m_TileObjectToInstantiateIndex: 65535
      m_AllTileFlags: 1073741825
  - first: {x: 7, y: -4, z: 0}
    second:
      serializedVersion: 2
      m_TileIndex: 48
      m_TileSpriteIndex: 48
      m_TileMatrixIndex: 0
      m_TileColorIndex: 0
      m_TileObjectToInstantiateIndex: 65535
      m_AllTileFlags: 1073741825
  - first: {x: 8, y: -4, z: 0}
    second:
      serializedVersion: 2
      m_TileIndex: 49
      m_TileSpriteIndex: 49
      m_TileMatrixIndex: 0
      m_TileColorIndex: 0
      m_TileObjectToInstantiateIndex: 65535
      m_AllTileFlags: 1073741825
  - first: {x: -1, y: -3, z: 0}
    second:
      serializedVersion: 2
      m_TileIndex: 30
      m_TileSpriteIndex: 30
      m_TileMatrixIndex: 0
      m_TileColorIndex: 0
      m_TileObjectToInstantiateIndex: 65535
      m_AllTileFlags: 1073741825
  - first: {x: 0, y: -3, z: 0}
    second:
      serializedVersion: 2
      m_TileIndex: 31
      m_TileSpriteIndex: 31
      m_TileMatrixIndex: 0
      m_TileColorIndex: 0
      m_TileObjectToInstantiateIndex: 65535
      m_AllTileFlags: 1073741825
  - first: {x: 1, y: -3, z: 0}
    second:
      serializedVersion: 2
      m_TileIndex: 32
      m_TileSpriteIndex: 32
      m_TileMatrixIndex: 0
      m_TileColorIndex: 0
      m_TileObjectToInstantiateIndex: 65535
      m_AllTileFlags: 1073741825
  - first: {x: 2, y: -3, z: 0}
    second:
      serializedVersion: 2
      m_TileIndex: 33
      m_TileSpriteIndex: 33
      m_TileMatrixIndex: 0
      m_TileColorIndex: 0
      m_TileObjectToInstantiateIndex: 65535
      m_AllTileFlags: 1073741825
  - first: {x: 3, y: -3, z: 0}
    second:
      serializedVersion: 2
      m_TileIndex: 34
      m_TileSpriteIndex: 34
      m_TileMatrixIndex: 0
      m_TileColorIndex: 0
      m_TileObjectToInstantiateIndex: 65535
      m_AllTileFlags: 1073741825
  - first: {x: 4, y: -3, z: 0}
    second:
      serializedVersion: 2
      m_TileIndex: 35
      m_TileSpriteIndex: 35
      m_TileMatrixIndex: 0
      m_TileColorIndex: 0
      m_TileObjectToInstantiateIndex: 65535
      m_AllTileFlags: 1073741825
  - first: {x: 5, y: -3, z: 0}
    second:
      serializedVersion: 2
      m_TileIndex: 36
      m_TileSpriteIndex: 36
      m_TileMatrixIndex: 0
      m_TileColorIndex: 0
      m_TileObjectToInstantiateIndex: 65535
      m_AllTileFlags: 1073741825
  - first: {x: 6, y: -3, z: 0}
    second:
      serializedVersion: 2
      m_TileIndex: 37
      m_TileSpriteIndex: 37
      m_TileMatrixIndex: 0
      m_TileColorIndex: 0
      m_TileObjectToInstantiateIndex: 65535
      m_AllTileFlags: 1073741825
  - first: {x: 7, y: -3, z: 0}
    second:
      serializedVersion: 2
      m_TileIndex: 38
      m_TileSpriteIndex: 38
      m_TileMatrixIndex: 0
      m_TileColorIndex: 0
      m_TileObjectToInstantiateIndex: 65535
      m_AllTileFlags: 1073741825
  - first: {x: 8, y: -3, z: 0}
    second:
      serializedVersion: 2
      m_TileIndex: 39
      m_TileSpriteIndex: 39
      m_TileMatrixIndex: 0
      m_TileColorIndex: 0
      m_TileObjectToInstantiateIndex: 65535
      m_AllTileFlags: 1073741825
  - first: {x: -1, y: -2, z: 0}
    second:
      serializedVersion: 2
      m_TileIndex: 20
      m_TileSpriteIndex: 20
      m_TileMatrixIndex: 0
      m_TileColorIndex: 0
      m_TileObjectToInstantiateIndex: 65535
      m_AllTileFlags: 1073741825
  - first: {x: 0, y: -2, z: 0}
    second:
      serializedVersion: 2
      m_TileIndex: 21
      m_TileSpriteIndex: 21
      m_TileMatrixIndex: 0
      m_TileColorIndex: 0
      m_TileObjectToInstantiateIndex: 65535
      m_AllTileFlags: 1073741825
  - first: {x: 1, y: -2, z: 0}
    second:
      serializedVersion: 2
      m_TileIndex: 22
      m_TileSpriteIndex: 22
      m_TileMatrixIndex: 0
      m_TileColorIndex: 0
      m_TileObjectToInstantiateIndex: 65535
      m_AllTileFlags: 1073741825
  - first: {x: 2, y: -2, z: 0}
    second:
      serializedVersion: 2
      m_TileIndex: 23
      m_TileSpriteIndex: 23
      m_TileMatrixIndex: 0
      m_TileColorIndex: 0
      m_TileObjectToInstantiateIndex: 65535
      m_AllTileFlags: 1073741825
  - first: {x: 3, y: -2, z: 0}
    second:
      serializedVersion: 2
      m_TileIndex: 24
      m_TileSpriteIndex: 24
      m_TileMatrixIndex: 0
      m_TileColorIndex: 0
      m_TileObjectToInstantiateIndex: 65535
      m_AllTileFlags: 1073741825
  - first: {x: 4, y: -2, z: 0}
    second:
      serializedVersion: 2
      m_TileIndex: 25
      m_TileSpriteIndex: 25
      m_TileMatrixIndex: 0
      m_TileColorIndex: 0
      m_TileObjectToInstantiateIndex: 65535
      m_AllTileFlags: 1073741825
  - first: {x: 5, y: -2, z: 0}
    second:
      serializedVersion: 2
      m_TileIndex: 26
      m_TileSpriteIndex: 26
      m_TileMatrixIndex: 0
      m_TileColorIndex: 0
      m_TileObjectToInstantiateIndex: 65535
      m_AllTileFlags: 1073741825
  - first: {x: 6, y: -2, z: 0}
    second:
      serializedVersion: 2
      m_TileIndex: 27
      m_TileSpriteIndex: 27
      m_TileMatrixIndex: 0
      m_TileColorIndex: 0
      m_TileObjectToInstantiateIndex: 65535
      m_AllTileFlags: 1073741825
  - first: {x: 7, y: -2, z: 0}
    second:
      serializedVersion: 2
      m_TileIndex: 28
      m_TileSpriteIndex: 28
      m_TileMatrixIndex: 0
      m_TileColorIndex: 0
      m_TileObjectToInstantiateIndex: 65535
      m_AllTileFlags: 1073741825
  - first: {x: 8, y: -2, z: 0}
    second:
      serializedVersion: 2
      m_TileIndex: 29
      m_TileSpriteIndex: 29
      m_TileMatrixIndex: 0
      m_TileColorIndex: 0
      m_TileObjectToInstantiateIndex: 65535
      m_AllTileFlags: 1073741825
  - first: {x: -1, y: -1, z: 0}
    second:
      serializedVersion: 2
      m_TileIndex: 10
      m_TileSpriteIndex: 10
      m_TileMatrixIndex: 0
      m_TileColorIndex: 0
      m_TileObjectToInstantiateIndex: 65535
      m_AllTileFlags: 1073741825
  - first: {x: 0, y: -1, z: 0}
    second:
      serializedVersion: 2
      m_TileIndex: 11
      m_TileSpriteIndex: 11
      m_TileMatrixIndex: 0
      m_TileColorIndex: 0
      m_TileObjectToInstantiateIndex: 65535
      m_AllTileFlags: 1073741825
  - first: {x: 1, y: -1, z: 0}
    second:
      serializedVersion: 2
      m_TileIndex: 12
      m_TileSpriteIndex: 12
      m_TileMatrixIndex: 0
      m_TileColorIndex: 0
      m_TileObjectToInstantiateIndex: 65535
      m_AllTileFlags: 1073741825
  - first: {x: 2, y: -1, z: 0}
    second:
      serializedVersion: 2
      m_TileIndex: 13
      m_TileSpriteIndex: 13
      m_TileMatrixIndex: 0
      m_TileColorIndex: 0
      m_TileObjectToInstantiateIndex: 65535
      m_AllTileFlags: 1073741825
  - first: {x: 3, y: -1, z: 0}
    second:
      serializedVersion: 2
      m_TileIndex: 14
      m_TileSpriteIndex: 14
      m_TileMatrixIndex: 0
      m_TileColorIndex: 0
      m_TileObjectToInstantiateIndex: 65535
      m_AllTileFlags: 1073741825
  - first: {x: 4, y: -1, z: 0}
    second:
      serializedVersion: 2
      m_TileIndex: 15
      m_TileSpriteIndex: 15
      m_TileMatrixIndex: 0
      m_TileColorIndex: 0
      m_TileObjectToInstantiateIndex: 65535
      m_AllTileFlags: 1073741825
  - first: {x: 5, y: -1, z: 0}
    second:
      serializedVersion: 2
      m_TileIndex: 16
      m_TileSpriteIndex: 16
      m_TileMatrixIndex: 0
      m_TileColorIndex: 0
      m_TileObjectToInstantiateIndex: 65535
      m_AllTileFlags: 1073741825
  - first: {x: 6, y: -1, z: 0}
    second:
      serializedVersion: 2
      m_TileIndex: 17
      m_TileSpriteIndex: 17
      m_TileMatrixIndex: 0
      m_TileColorIndex: 0
      m_TileObjectToInstantiateIndex: 65535
      m_AllTileFlags: 1073741825
  - first: {x: 7, y: -1, z: 0}
    second:
      serializedVersion: 2
      m_TileIndex: 18
      m_TileSpriteIndex: 18
      m_TileMatrixIndex: 0
      m_TileColorIndex: 0
      m_TileObjectToInstantiateIndex: 65535
      m_AllTileFlags: 1073741825
  - first: {x: 8, y: -1, z: 0}
    second:
      serializedVersion: 2
      m_TileIndex: 19
      m_TileSpriteIndex: 19
      m_TileMatrixIndex: 0
      m_TileColorIndex: 0
      m_TileObjectToInstantiateIndex: 65535
      m_AllTileFlags: 1073741825
  - first: {x: -1, y: 0, z: 0}
    second:
      serializedVersion: 2
      m_TileIndex: 0
      m_TileSpriteIndex: 0
      m_TileMatrixIndex: 0
      m_TileColorIndex: 0
      m_TileObjectToInstantiateIndex: 65535
      m_AllTileFlags: 1073741825
  - first: {x: 0, y: 0, z: 0}
    second:
      serializedVersion: 2
      m_TileIndex: 1
      m_TileSpriteIndex: 1
      m_TileMatrixIndex: 0
      m_TileColorIndex: 0
      m_TileObjectToInstantiateIndex: 65535
      m_AllTileFlags: 1073741825
  - first: {x: 1, y: 0, z: 0}
    second:
      serializedVersion: 2
      m_TileIndex: 2
      m_TileSpriteIndex: 2
      m_TileMatrixIndex: 0
      m_TileColorIndex: 0
      m_TileObjectToInstantiateIndex: 65535
      m_AllTileFlags: 1073741825
  - first: {x: 2, y: 0, z: 0}
    second:
      serializedVersion: 2
      m_TileIndex: 3
      m_TileSpriteIndex: 3
      m_TileMatrixIndex: 0
      m_TileColorIndex: 0
      m_TileObjectToInstantiateIndex: 65535
      m_AllTileFlags: 1073741825
  - first: {x: 3, y: 0, z: 0}
    second:
      serializedVersion: 2
      m_TileIndex: 4
      m_TileSpriteIndex: 4
      m_TileMatrixIndex: 0
      m_TileColorIndex: 0
      m_TileObjectToInstantiateIndex: 65535
      m_AllTileFlags: 1073741825
  - first: {x: 4, y: 0, z: 0}
    second:
      serializedVersion: 2
      m_TileIndex: 5
      m_TileSpriteIndex: 5
      m_TileMatrixIndex: 0
      m_TileColorIndex: 0
      m_TileObjectToInstantiateIndex: 65535
      m_AllTileFlags: 1073741825
  - first: {x: 5, y: 0, z: 0}
    second:
      serializedVersion: 2
      m_TileIndex: 6
      m_TileSpriteIndex: 6
      m_TileMatrixIndex: 0
      m_TileColorIndex: 0
      m_TileObjectToInstantiateIndex: 65535
      m_AllTileFlags: 1073741825
  - first: {x: 6, y: 0, z: 0}
    second:
      serializedVersion: 2
      m_TileIndex: 7
      m_TileSpriteIndex: 7
      m_TileMatrixIndex: 0
      m_TileColorIndex: 0
      m_TileObjectToInstantiateIndex: 65535
      m_AllTileFlags: 1073741825
  - first: {x: 7, y: 0, z: 0}
    second:
      serializedVersion: 2
      m_TileIndex: 8
      m_TileSpriteIndex: 8
      m_TileMatrixIndex: 0
      m_TileColorIndex: 0
      m_TileObjectToInstantiateIndex: 65535
      m_AllTileFlags: 1073741825
  - first: {x: 8, y: 0, z: 0}
    second:
      serializedVersion: 2
      m_TileIndex: 9
      m_TileSpriteIndex: 9
      m_TileMatrixIndex: 0
      m_TileColorIndex: 0
      m_TileObjectToInstantiateIndex: 65535
      m_AllTileFlags: 1073741825
  m_AnimatedTiles: {}
  m_TileAssetArray:
  - m_RefCount: 1
    m_Data: {fileID: 11400000, guid: 748ad4c957f10b2409d05fb2ef787c59, type: 2}
  - m_RefCount: 1
    m_Data: {fileID: 11400000, guid: ed91cc34ce946b24ba3a08032eff7b36, type: 2}
  - m_RefCount: 1
    m_Data: {fileID: 11400000, guid: ffb77c16259cfb04e98fc01faf356ae7, type: 2}
  - m_RefCount: 1
    m_Data: {fileID: 11400000, guid: c7046cd80b974614ea4bcc2f4f24ca97, type: 2}
  - m_RefCount: 1
    m_Data: {fileID: 11400000, guid: b8bcd071bdae0db47bae349b56c66b7c, type: 2}
  - m_RefCount: 1
    m_Data: {fileID: 11400000, guid: 393c4087c3a4acc488ae349460a8d37c, type: 2}
  - m_RefCount: 1
    m_Data: {fileID: 11400000, guid: bb3fbc6f0330b7c40b7268a5b7a30376, type: 2}
  - m_RefCount: 1
    m_Data: {fileID: 11400000, guid: deed97b0bab5b7a4d997145989f9f4e4, type: 2}
  - m_RefCount: 1
    m_Data: {fileID: 11400000, guid: c4c894a43ed445e4e8764a860ba3b216, type: 2}
  - m_RefCount: 1
    m_Data: {fileID: 11400000, guid: dd4b867bedf42354f8bc023f2bcf6280, type: 2}
  - m_RefCount: 1
    m_Data: {fileID: 11400000, guid: 9829c7b61783d1345911c276c19a7191, type: 2}
  - m_RefCount: 1
    m_Data: {fileID: 11400000, guid: 4a11a4ff506a0244dad3a21b57f95fac, type: 2}
  - m_RefCount: 1
    m_Data: {fileID: 11400000, guid: ba1a8b07b79687747aa20a061c58ee9d, type: 2}
  - m_RefCount: 1
    m_Data: {fileID: 11400000, guid: 830268c13c77e194fbea0f1504e8d3d6, type: 2}
  - m_RefCount: 1
    m_Data: {fileID: 11400000, guid: 461774b39eb1c664cb9866522174c3e7, type: 2}
  - m_RefCount: 1
    m_Data: {fileID: 11400000, guid: ec5c9e47a8c00da428ecf4a31820151b, type: 2}
  - m_RefCount: 1
    m_Data: {fileID: 11400000, guid: f0fcb62e2a8ead8439cf31386cad296c, type: 2}
  - m_RefCount: 1
    m_Data: {fileID: 11400000, guid: f8e93810a973f1846a2b959d39ddb431, type: 2}
  - m_RefCount: 1
    m_Data: {fileID: 11400000, guid: 7dadd94b2aa5b8947853b0ba81de8654, type: 2}
  - m_RefCount: 1
    m_Data: {fileID: 11400000, guid: 37d80e29db12ae143b91aa60839bcbd4, type: 2}
  - m_RefCount: 1
    m_Data: {fileID: 11400000, guid: 2167496a4f84d384d992dd8506d57523, type: 2}
  - m_RefCount: 1
    m_Data: {fileID: 11400000, guid: 346d5f85a970f1d4b87ce48e456569f9, type: 2}
  - m_RefCount: 1
    m_Data: {fileID: 11400000, guid: f844d4274af22834687e7c71cbd870d6, type: 2}
  - m_RefCount: 1
    m_Data: {fileID: 11400000, guid: 9b84f6531f7fcfc479d237570084d6e4, type: 2}
  - m_RefCount: 1
    m_Data: {fileID: 11400000, guid: aa3f2c2e27973804381a1a0c38ddf65f, type: 2}
  - m_RefCount: 1
    m_Data: {fileID: 11400000, guid: 40800205e38e5ce48b0c49e3b16f4045, type: 2}
  - m_RefCount: 1
    m_Data: {fileID: 11400000, guid: e08448d1a5e34ea49bd43038656c566c, type: 2}
  - m_RefCount: 1
    m_Data: {fileID: 11400000, guid: 89a30f67974a4a04aa943b9dee8f4d5d, type: 2}
  - m_RefCount: 1
    m_Data: {fileID: 11400000, guid: 3a06d7c5a45313547a1617bde734318e, type: 2}
  - m_RefCount: 1
    m_Data: {fileID: 11400000, guid: 860e2af9b6093d649bd39553ba39dcd8, type: 2}
  - m_RefCount: 1
    m_Data: {fileID: 11400000, guid: 9de50173fdb7b214088cfab039a8da42, type: 2}
  - m_RefCount: 1
    m_Data: {fileID: 11400000, guid: 8beaa69a30c23014583ac4e627f32ebc, type: 2}
  - m_RefCount: 1
    m_Data: {fileID: 11400000, guid: 00bf1d4e9f041954ab514ddd2b4eefeb, type: 2}
  - m_RefCount: 1
    m_Data: {fileID: 11400000, guid: a88540afbd389a84a8e364a4e8193d5e, type: 2}
  - m_RefCount: 1
    m_Data: {fileID: 11400000, guid: 88de6a18fdcc7314c87c3774bc90d363, type: 2}
  - m_RefCount: 1
    m_Data: {fileID: 11400000, guid: 21a20e30fcb737b4ba6f8093acb16384, type: 2}
  - m_RefCount: 1
    m_Data: {fileID: 11400000, guid: c40d41e3b547611448809b2c44f47fd3, type: 2}
  - m_RefCount: 1
    m_Data: {fileID: 11400000, guid: 76b0362c68626ea4d968736cfea86f9f, type: 2}
  - m_RefCount: 1
    m_Data: {fileID: 11400000, guid: bc683e96e3dc8814581cce3327aab1d6, type: 2}
  - m_RefCount: 1
    m_Data: {fileID: 11400000, guid: 33f1bbfd555868140b7140e4899ae3b2, type: 2}
  - m_RefCount: 1
    m_Data: {fileID: 11400000, guid: 4de9148cd0336b84f96cb0ed736de186, type: 2}
  - m_RefCount: 1
    m_Data: {fileID: 11400000, guid: 553f7cdcca678894db719f3edc61d334, type: 2}
  - m_RefCount: 1
    m_Data: {fileID: 11400000, guid: 79013905a131a2f4ca2a74dd4bc71e87, type: 2}
  - m_RefCount: 1
    m_Data: {fileID: 11400000, guid: 559f9540ee98b7a43a1ef10640289563, type: 2}
  - m_RefCount: 1
    m_Data: {fileID: 11400000, guid: ba59ad4690bf8484e8c5c2b18dad4085, type: 2}
  - m_RefCount: 1
    m_Data: {fileID: 11400000, guid: 14a0a657e012daa4989ccd8ea4db0f75, type: 2}
  - m_RefCount: 1
    m_Data: {fileID: 11400000, guid: 23c155861be5b04418a818e414cc33b9, type: 2}
  - m_RefCount: 1
    m_Data: {fileID: 11400000, guid: 7b59d2ea02bbd124f9a517b20d317f26, type: 2}
  - m_RefCount: 1
    m_Data: {fileID: 11400000, guid: 15884358024b33b45b95b8da2c319c6c, type: 2}
  - m_RefCount: 1
    m_Data: {fileID: 11400000, guid: e2ac790de204e144d9029d770ea0ac70, type: 2}
  - m_RefCount: 1
    m_Data: {fileID: 11400000, guid: 16c1ea91f310a3e4c93246bc1872033a, type: 2}
  - m_RefCount: 1
    m_Data: {fileID: 11400000, guid: f34ec410b7cfc2642a91987aa234191b, type: 2}
  - m_RefCount: 1
    m_Data: {fileID: 11400000, guid: b6d0bcdaa6dc3804e883f9534a41959b, type: 2}
  - m_RefCount: 1
    m_Data: {fileID: 11400000, guid: 2ee20150d05323b4bbf466a4904b78f9, type: 2}
  - m_RefCount: 1
    m_Data: {fileID: 11400000, guid: ba1abd58e509bdf48b414fa216b377db, type: 2}
  - m_RefCount: 1
    m_Data: {fileID: 11400000, guid: 6b08ad06d730d4b42a27f55319f0338e, type: 2}
  - m_RefCount: 1
    m_Data: {fileID: 11400000, guid: 7d19a94830118b1449583ba4ab85ceb4, type: 2}
  - m_RefCount: 1
    m_Data: {fileID: 11400000, guid: 7adb7bbe7c9d27040a1755537d6f4429, type: 2}
  - m_RefCount: 1
    m_Data: {fileID: 11400000, guid: 51b760bc44a971e4a90a975020e56848, type: 2}
  - m_RefCount: 1
    m_Data: {fileID: 11400000, guid: a438ee9fb661c474c80581c25ab69d5f, type: 2}
  m_TileSpriteArray:
  - m_RefCount: 1
    m_Data: {fileID: 5441223297315994465, guid: 1de077b2ee2b40044a2649f11ae932ed, type: 3}
  - m_RefCount: 1
    m_Data: {fileID: -3309781605116015348, guid: 1de077b2ee2b40044a2649f11ae932ed, type: 3}
  - m_RefCount: 1
    m_Data: {fileID: -6108889420429456849, guid: 1de077b2ee2b40044a2649f11ae932ed, type: 3}
  - m_RefCount: 1
    m_Data: {fileID: 5682393469540925955, guid: 1de077b2ee2b40044a2649f11ae932ed, type: 3}
  - m_RefCount: 1
    m_Data: {fileID: 2403724249865808194, guid: 1de077b2ee2b40044a2649f11ae932ed, type: 3}
  - m_RefCount: 1
    m_Data: {fileID: 8040196581939011165, guid: 1de077b2ee2b40044a2649f11ae932ed, type: 3}
  - m_RefCount: 1
    m_Data: {fileID: -6056380807486736462, guid: 1de077b2ee2b40044a2649f11ae932ed, type: 3}
  - m_RefCount: 1
    m_Data: {fileID: -8480404140891905064, guid: 1de077b2ee2b40044a2649f11ae932ed, type: 3}
  - m_RefCount: 1
    m_Data: {fileID: -72156938504300551, guid: 1de077b2ee2b40044a2649f11ae932ed, type: 3}
  - m_RefCount: 1
    m_Data: {fileID: 7769453424612927293, guid: 1de077b2ee2b40044a2649f11ae932ed, type: 3}
  - m_RefCount: 1
    m_Data: {fileID: -8025435653959805260, guid: 1de077b2ee2b40044a2649f11ae932ed, type: 3}
  - m_RefCount: 1
    m_Data: {fileID: 4938342473259674171, guid: 1de077b2ee2b40044a2649f11ae932ed, type: 3}
  - m_RefCount: 1
    m_Data: {fileID: -6315978382755026507, guid: 1de077b2ee2b40044a2649f11ae932ed, type: 3}
  - m_RefCount: 1
    m_Data: {fileID: -1010255394613501995, guid: 1de077b2ee2b40044a2649f11ae932ed, type: 3}
  - m_RefCount: 1
    m_Data: {fileID: -7933298228110686459, guid: 1de077b2ee2b40044a2649f11ae932ed, type: 3}
  - m_RefCount: 1
    m_Data: {fileID: 2167505942708378944, guid: 1de077b2ee2b40044a2649f11ae932ed, type: 3}
  - m_RefCount: 1
    m_Data: {fileID: -9164683769879867358, guid: 1de077b2ee2b40044a2649f11ae932ed, type: 3}
  - m_RefCount: 1
    m_Data: {fileID: -4087309676702264633, guid: 1de077b2ee2b40044a2649f11ae932ed, type: 3}
  - m_RefCount: 1
    m_Data: {fileID: 3931779560235752176, guid: 1de077b2ee2b40044a2649f11ae932ed, type: 3}
  - m_RefCount: 1
    m_Data: {fileID: -1865757787562490331, guid: 1de077b2ee2b40044a2649f11ae932ed, type: 3}
  - m_RefCount: 1
    m_Data: {fileID: -7869403223043187030, guid: 1de077b2ee2b40044a2649f11ae932ed, type: 3}
  - m_RefCount: 1
    m_Data: {fileID: 6408231970667830406, guid: 1de077b2ee2b40044a2649f11ae932ed, type: 3}
  - m_RefCount: 1
    m_Data: {fileID: 511961965738296472, guid: 1de077b2ee2b40044a2649f11ae932ed, type: 3}
  - m_RefCount: 1
    m_Data: {fileID: -8442174482077232629, guid: 1de077b2ee2b40044a2649f11ae932ed, type: 3}
  - m_RefCount: 1
    m_Data: {fileID: -6936079216851816805, guid: 1de077b2ee2b40044a2649f11ae932ed, type: 3}
  - m_RefCount: 1
    m_Data: {fileID: 7810936717752353743, guid: 1de077b2ee2b40044a2649f11ae932ed, type: 3}
  - m_RefCount: 1
    m_Data: {fileID: 3419707775326841495, guid: 1de077b2ee2b40044a2649f11ae932ed, type: 3}
  - m_RefCount: 1
    m_Data: {fileID: -7245433517681746672, guid: 1de077b2ee2b40044a2649f11ae932ed, type: 3}
  - m_RefCount: 1
    m_Data: {fileID: -251839660766796828, guid: 1de077b2ee2b40044a2649f11ae932ed, type: 3}
  - m_RefCount: 1
    m_Data: {fileID: 6498308080520882553, guid: 1de077b2ee2b40044a2649f11ae932ed, type: 3}
  - m_RefCount: 1
    m_Data: {fileID: -4153462369580933767, guid: 1de077b2ee2b40044a2649f11ae932ed, type: 3}
  - m_RefCount: 1
    m_Data: {fileID: 5252699531460982423, guid: 1de077b2ee2b40044a2649f11ae932ed, type: 3}
  - m_RefCount: 1
    m_Data: {fileID: -1995710985900991969, guid: 1de077b2ee2b40044a2649f11ae932ed, type: 3}
  - m_RefCount: 1
    m_Data: {fileID: -6790877635778163277, guid: 1de077b2ee2b40044a2649f11ae932ed, type: 3}
  - m_RefCount: 1
    m_Data: {fileID: -8485852519046724033, guid: 1de077b2ee2b40044a2649f11ae932ed, type: 3}
  - m_RefCount: 1
    m_Data: {fileID: 4060682636331337571, guid: 1de077b2ee2b40044a2649f11ae932ed, type: 3}
  - m_RefCount: 1
    m_Data: {fileID: -5244482664123065748, guid: 1de077b2ee2b40044a2649f11ae932ed, type: 3}
  - m_RefCount: 1
    m_Data: {fileID: 3355423005436571770, guid: 1de077b2ee2b40044a2649f11ae932ed, type: 3}
  - m_RefCount: 1
    m_Data: {fileID: 7000084741650100059, guid: 1de077b2ee2b40044a2649f11ae932ed, type: 3}
  - m_RefCount: 1
    m_Data: {fileID: -3708064732922258302, guid: 1de077b2ee2b40044a2649f11ae932ed, type: 3}
  - m_RefCount: 1
    m_Data: {fileID: -6845586650278806490, guid: 1de077b2ee2b40044a2649f11ae932ed, type: 3}
  - m_RefCount: 1
    m_Data: {fileID: 9050836684853675456, guid: 1de077b2ee2b40044a2649f11ae932ed, type: 3}
  - m_RefCount: 1
    m_Data: {fileID: 5286604566695674614, guid: 1de077b2ee2b40044a2649f11ae932ed, type: 3}
  - m_RefCount: 1
    m_Data: {fileID: -6175098468129261796, guid: 1de077b2ee2b40044a2649f11ae932ed, type: 3}
  - m_RefCount: 1
    m_Data: {fileID: -1764967261314419617, guid: 1de077b2ee2b40044a2649f11ae932ed, type: 3}
  - m_RefCount: 1
    m_Data: {fileID: 4097243551642442831, guid: 1de077b2ee2b40044a2649f11ae932ed, type: 3}
  - m_RefCount: 1
    m_Data: {fileID: -4553793528244279247, guid: 1de077b2ee2b40044a2649f11ae932ed, type: 3}
  - m_RefCount: 1
    m_Data: {fileID: -1788890817464930820, guid: 1de077b2ee2b40044a2649f11ae932ed, type: 3}
  - m_RefCount: 1
    m_Data: {fileID: 8964647865480036123, guid: 1de077b2ee2b40044a2649f11ae932ed, type: 3}
  - m_RefCount: 1
    m_Data: {fileID: 7504058923700220638, guid: 1de077b2ee2b40044a2649f11ae932ed, type: 3}
  - m_RefCount: 1
    m_Data: {fileID: 6576249790921849821, guid: 1de077b2ee2b40044a2649f11ae932ed, type: 3}
  - m_RefCount: 1
    m_Data: {fileID: 6842110584453081141, guid: 1de077b2ee2b40044a2649f11ae932ed, type: 3}
  - m_RefCount: 1
    m_Data: {fileID: 1883419416733562292, guid: 1de077b2ee2b40044a2649f11ae932ed, type: 3}
  - m_RefCount: 1
    m_Data: {fileID: -1745280011730706991, guid: 1de077b2ee2b40044a2649f11ae932ed, type: 3}
  - m_RefCount: 1
    m_Data: {fileID: -784972302168420868, guid: 1de077b2ee2b40044a2649f11ae932ed, type: 3}
  - m_RefCount: 1
    m_Data: {fileID: 5734892399885210946, guid: 1de077b2ee2b40044a2649f11ae932ed, type: 3}
  - m_RefCount: 1
    m_Data: {fileID: -3099550750896681144, guid: 1de077b2ee2b40044a2649f11ae932ed, type: 3}
  - m_RefCount: 1
    m_Data: {fileID: 4617657777311919784, guid: 1de077b2ee2b40044a2649f11ae932ed, type: 3}
  - m_RefCount: 1
    m_Data: {fileID: -2458843072021148632, guid: 1de077b2ee2b40044a2649f11ae932ed, type: 3}
  - m_RefCount: 1
    m_Data: {fileID: 4413150509923625746, guid: 1de077b2ee2b40044a2649f11ae932ed, type: 3}
  m_TileMatrixArray:
  - m_RefCount: 60
    m_Data:
      e00: 1
      e01: 0
      e02: 0
      e03: 0
      e10: 0
      e11: 1
      e12: 0
      e13: 0
      e20: 0
      e21: 0
      e22: 1
      e23: 0
      e30: 0
      e31: 0
      e32: 0
      e33: 1
  m_TileColorArray:
  - m_RefCount: 60
    m_Data: {r: 1, g: 1, b: 1, a: 1}
  m_TileObjectToInstantiateArray: []
  m_AnimationFrameRate: 1
  m_Color: {r: 1, g: 1, b: 1, a: 1}
  m_Origin: {x: -1, y: -5, z: 0}
  m_Size: {x: 10, y: 6, z: 1}
  m_TileAnchor: {x: 0.5, y: 0.5, z: 0}
  m_TileOrientation: 0
  m_TileOrientationMatrix:
    e00: 1
    e01: 0
    e02: 0
    e03: 0
    e10: 0
    e11: 1
    e12: 0
    e13: 0
    e20: 0
    e21: 0
    e22: 1
    e23: 0
    e30: 0
    e31: 0
    e32: 0
    e33: 1
--- !u!483693784 &7828267376415636666
TilemapRenderer:
  m_ObjectHideFlags: 0
  m_CorrespondingSourceObject: {fileID: 0}
  m_PrefabInstance: {fileID: 0}
  m_PrefabAsset: {fileID: 0}
  m_GameObject: {fileID: 4867218347543381657}
  m_Enabled: 1
  m_CastShadows: 0
  m_ReceiveShadows: 0
  m_DynamicOccludee: 1
  m_MotionVectors: 1
  m_LightProbeUsage: 0
  m_ReflectionProbeUsage: 0
  m_RayTracingMode: 0
  m_RayTraceProcedural: 0
  m_RenderingLayerMask: 1
  m_RendererPriority: 0
  m_Materials:
  - {fileID: 10754, guid: 0000000000000000f000000000000000, type: 0}
  m_StaticBatchInfo:
    firstSubMesh: 0
    subMeshCount: 0
  m_StaticBatchRoot: {fileID: 0}
  m_ProbeAnchor: {fileID: 0}
  m_LightProbeVolumeOverride: {fileID: 0}
  m_ScaleInLightmap: 1
  m_ReceiveGI: 1
  m_PreserveUVs: 0
  m_IgnoreNormalsForChartDetection: 0
  m_ImportantGI: 0
  m_StitchLightmapSeams: 1
  m_SelectedEditorRenderState: 0
  m_MinimumChartSize: 4
  m_AutoUVMaxDistance: 0.5
  m_AutoUVMaxAngle: 89
  m_LightmapParameters: {fileID: 0}
  m_SortingLayerID: 0
  m_SortingLayer: 0
  m_SortingOrder: 0
  m_ChunkSize: {x: 32, y: 32, z: 32}
  m_ChunkCullingBounds: {x: 0, y: 0, z: 0}
  m_MaxChunkCount: 16
  m_MaxFrameAge: 16
  m_SortOrder: 0
  m_Mode: 0
  m_DetectChunkCullingBounds: 0
  m_MaskInteraction: 0
--- !u!1 &6799446159320205339
GameObject:
  m_ObjectHideFlags: 0
  m_CorrespondingSourceObject: {fileID: 0}
  m_PrefabInstance: {fileID: 0}
  m_PrefabAsset: {fileID: 0}
  serializedVersion: 6
  m_Component:
  - component: {fileID: 2825990550205054040}
  - component: {fileID: 9085711116710907350}
  m_Layer: 31
  m_Name: Ground
  m_TagString: Untagged
  m_Icon: {fileID: 0}
  m_NavMeshLayer: 0
  m_StaticEditorFlags: 0
  m_IsActive: 1
--- !u!4 &2825990550205054040
Transform:
  m_ObjectHideFlags: 0
  m_CorrespondingSourceObject: {fileID: 0}
  m_PrefabInstance: {fileID: 0}
  m_PrefabAsset: {fileID: 0}
  m_GameObject: {fileID: 6799446159320205339}
  m_LocalRotation: {x: 0, y: 0, z: 0, w: 1}
  m_LocalPosition: {x: 0, y: 0, z: 0}
  m_LocalScale: {x: 1, y: 1, z: 1}
  m_Children:
  - {fileID: 6969641078151164894}
  m_Father: {fileID: 0}
  m_RootOrder: 0
  m_LocalEulerAnglesHint: {x: 0, y: 0, z: 0}
--- !u!156049354 &9085711116710907350
Grid:
  m_ObjectHideFlags: 0
  m_CorrespondingSourceObject: {fileID: 0}
  m_PrefabInstance: {fileID: 0}
  m_PrefabAsset: {fileID: 0}
  m_GameObject: {fileID: 6799446159320205339}
  m_Enabled: 1
  m_CellSize: {x: 1, y: 1, z: 0}
  m_CellGap: {x: 0, y: 0, z: 0}
  m_CellLayout: 0
  m_CellSwizzle: 0
--- !u!114 &6442423838553698286
MonoBehaviour:
  m_ObjectHideFlags: 0
  m_CorrespondingSourceObject: {fileID: 0}
  m_PrefabInstance: {fileID: 0}
  m_PrefabAsset: {fileID: 0}
  m_GameObject: {fileID: 0}
  m_Enabled: 1
  m_EditorHideFlags: 0
  m_Script: {fileID: 12395, guid: 0000000000000000e000000000000000, type: 0}
  m_Name: Palette Settings
  m_EditorClassIdentifier: 
  cellSizing: 0
